{
    "host": "localhost",
    "port": 50053,
    "register_as": "localhost",
    "bus": {
      "host": "localhost",
      "port": 5672,
      "secret": "kv/data/rabbitmq"
    },
    "logger": {
        "host": "localhost",
        "port": 24224,
        "timeout": 3.0,
        "sync": false
    },
    "vault": {
      "token": "s.dnMzpkdGMVweGhDCe1vnRiWl",
      "host": "http://localhost:8200",
      "key": "b6qub2Ak0Hc2oLJQwnkXQo2fHU1SeKQ/Zp5Gz1HXNiU="
    }
  }